{
  "project_info": {
    "project_number": "9092472077",
    "project_id": "learnfrombasic"
  },
  "client": [
    {
      "client_info": {
        "mobilesdk_app_id": "1:9092472077:android:c045ba1356ccbd49",
        "android_client_info": {
          "package_name": "learnesay.lreanfrombasic"
        }
      },
      "oauth_client": [
        {
          "client_id": "9092472077-4js7a9es8iicu24d9chlbigoiralknef.apps.googleusercontent.com",
          "client_type": 1,
          "android_info": {
            "package_name": "learnesay.lreanfrombasic",
            "certificate_hash": "eae58e1369a5e55018e8da9240b9a5d8b70916cf"
          }
        },
        {
          "client_id": "9092472077-dj3vbi8u4jklmucojjh2u2ldt3j4g13g.apps.googleusercontent.com",
          "client_type": 3
        }
      ],
      "api_key": [
        {
          "current_key": "AIzaSyDHP67TOW1qFJkglSjh3NwFooQhkHfAiIw"
        }
      ],
      "services": {
        "analytics_service": {
          "status": 1
        },
        "appinvite_service": {
          "status": 1,
          "other_platform_oauth_client": []
        },
        "ads_service": {
          "status": 1
        }
      }
    }
  ],
  "configuration_version": "1"
}
